Data 624 Project 1
…
ATM 4

atm4 %>% 
  sort_by(atm4$ATM4, decreasing = TRUE)

## # A tsibble: 365 x 2 [1D]
##    DATE        ATM4
##    <date>     <int>
##  1 2010-02-09 10920
##  2 2009-09-22  1712
##  3 2010-01-29  1575
##  4 2009-09-04  1495
##  5 2009-06-09  1484
##  6 2009-09-05  1301
##  7 2010-02-28  1276
##  8 2009-08-23  1246
##  9 2009-06-14  1221
## 10 2009-09-29  1195
## #  355 more rows

atm4$ATM4[which.max(atm4$ATM4)] <- median(atm4$ATM4, na.rm = TRUE)

atm4 %>% 
  sort_by(atm4$ATM4, decreasing = TRUE)

## # A tsibble: 365 x 2 [1D]
##    DATE        ATM4
##    <date>     <int>
##  1 2009-09-22  1712
##  2 2010-01-29  1575
##  3 2009-09-04  1495
##  4 2009-06-09  1484
##  5 2009-09-05  1301
##  6 2010-02-28  1276
##  7 2009-08-23  1246
##  8 2009-06-14  1221
##  9 2009-09-29  1195
## 10 2009-06-12  1191
## #  355 more rows
…
