Data 624 Homework 2
…
The above plot illustrates the GDP per capita for each country over
time. The legend has been removed because the large number of countries
was rendering the graph imperceptible. In order to then identify the
country with the highest GDP per capita, the code below was
performed.

global_economy %>%
  mutate(GDP_capita = GDP/Population) %>% 
  arrange(desc(GDP_capita))

## # A tsibble: 15,150 x 10 [1Y]
## # Key:       Country [263]
##    Country Code   Year    GDP Growth   CPI Imports Exports Population GDP_capita
##    <fct>   <fct> <dbl>  <dbl>  <dbl> <dbl>   <dbl>   <dbl>      <dbl>      <dbl>
##  1 Monaco  MCO    2014 7.06e9  7.18     NA      NA      NA      38132    185153.
##  2 Monaco  MCO    2008 6.48e9  0.732    NA      NA      NA      35853    180640.
##  3 Liecht LIE    2014 6.66e9 NA        NA      NA      NA      37127    179308.
##  4 Liecht LIE    2013 6.39e9 NA        NA      NA      NA      36834    173528.
##  5 Monaco  MCO    2013 6.55e9  9.57     NA      NA      NA      37971    172589.
##  6 Monaco  MCO    2016 6.47e9  3.21     NA      NA      NA      38499    168011.
##  7 Liecht LIE    2015 6.27e9 NA        NA      NA      NA      37403    167591.
##  8 Monaco  MCO    2007 5.87e9 14.4      NA      NA      NA      35111    167125.
##  9 Liecht LIE    2016 6.21e9 NA        NA      NA      NA      37666    164993.
## 10 Monaco  MCO    2015 6.26e9  4.94     NA      NA      NA      38307    163369.
## #  15,140 more rows
…
Exercise 8

Recall your retail time series data (from Exercise 7 in Section
2.10). Decompose the series using X-11. Does it reveal any outliers, or
unusual features that you had not noticed previously?

myseries %>% 
  model(x11 = X_13ARIMA_SEATS(Turnover ~ x11())) %>%
  components()

## # A dable: 441 x 9 [1M]
## # Key:     State, Industry, .model [1]
## # :        Turnover = trend * seasonal * irregular
##    State      Industry         .model    Month Turnover trend seasonal irregular
##    <chr>      <chr>            <chr>     <mth>    <dbl> <dbl>    <dbl>     <dbl>
##  1 Queensland Clothing retail x11    1982 Apr     28.9  29.1    0.963     1.03 
##  2 Queensland Clothing retail x11    1982 May     30.6  28.9    1.05      1.01 
##  3 Queensland Clothing retail x11    1982 Jun     30.5  28.8    0.966     1.10 
##  4 Queensland Clothing retail x11    1982 Jul     27.9  28.9    0.984     0.981
##  5 Queensland Clothing retail x11    1982 Aug     27.4  29.3    0.964     0.969
##  6 Queensland Clothing retail x11    1982 Sep     29.1  30.1    0.997     0.969
##  7 Queensland Clothing retail x11    1982 Oct     33.4  31.2    1.04      1.03 
##  8 Queensland Clothing retail x11    1982 Nov     35.5  32.3    1.08      1.02 
##  9 Queensland Clothing retail x11    1982 Dec     48.8  33.3    1.46      1.01 
## 10 Queensland Clothing retail x11    1983 Jan     29.7  33.9    0.881     0.994
## #  431 more rows
## #  1 more variable: season_adjust <dbl>
…
